{
  "mColorCurveData" : {
    "RED" : {
      "x" : [
        0.0,
        73.0,
        163.0,
        255.0
      ],
      "y" : [
        0.0,
        56.0,
        164.0,
        255.0
      ]
    },
    "GREEN" : {
      "x" : [
        0.0,
        73.0,
        163.0,
        255.0
      ],
      "y" : [
        0.0,
        56.0,
        164.0,
        255.0
      ]
    },
    "BLUE" : {
      "x" : [
        0.0,
        73.0,
        163.0,
        255.0
      ],
      "y" : [
        0.0,
        56.0,
        164.0,
        255.0
      ]
    }
  },
  "mHue" : 0.0,
  "mSaturation" : 0.0,
  "mBrightness" : 0.0,
  "mContrast" : 0.0
}